individual1
…
dat

## # A tibble: 64,816 x 14
##    `Gss year for t~ `Respondents as~ `Number words c~ `Country of fam~
##               <dbl> <chr>            <chr>            <chr>           
##  1             1972 Not applicable   Not applicable   Uncodeable & iap
##  2             1972 Not applicable   Not applicable   Ireland         
##  3             1972 Not applicable   Not applicable   Italy           
##  4             1972 Not applicable   Not applicable   Arabic          
##  5             1972 Not applicable   Not applicable   Switzerland     
##  6             1972 Not applicable   Not applicable   England & wales 
##  7             1972 Not applicable   Not applicable   Ireland         
##  8             1972 Not applicable   Not applicable   Uncodeable & iap
##  9             1972 Not applicable   Not applicable   Uncodeable & iap
## 10             1972 Not applicable   Not applicable   Uncodeable & iap
## # ... with 64,806 more rows, and 10 more variables: `Married people happier
## #   than unmarried` <chr>, `General happiness` <chr>, `Political party
## #   affiliation` <chr>, `Respondents sex` <chr>, `Highest year of school
## #   completed` <chr>, `Marital status` <chr>, `Rs occupational prestige score
## #   (1980)` <dbl>, `Rs occupational prestige score (1970)` <dbl>, `Respondent
## #   id number` <dbl>, `Ballot used for interview` <chr>
…
